{
  "add_scroll_to_top": false,
  "ads": "subscribed_channels",
  "always_show_progress_bar": false,
  "avoid_cpu_rendering_when_possible": "auto",
  "below_player_pip": false,
  "below_player_screenshot": false,
  "block_av1": true,
  "block_h264": false,
  "block_vp9": true,
  "channel_compact_theme": true,
  "channel_default_tab": "/videos",
  "channel_hide_featured_content": true,
  "channel_play_all_button": true,
  "channel_trailer_autoplay": false,
  "chapters": false,
  "collapse_of_subscription_sections": true,
  "comments": "collapsed",
  "comments_sidebar": false,
  "comments_sidebar_scrollbars": false,
  "confirmation_before_closing": false,
  "custom_player_size_width": "144",
  "duration_with_speed": true,
  "embeddedHideShare": true,
  "embeddedHideYoutubeLogo": true,
  "font": "Marriweather",
  "forced_play_video_from_the_beginning": false,
  "forced_theater_mode": true,
  "header_hide_country_code": true,
  "header_hide_right_buttons": false,
  "header_improve_logo": true,
  "header_position": "hidden_on_video_page",
  "header_transparent": false,
  "hide_animated_thumbnails": true,
  "hide_author_avatars": true,
  "hide_clip_button": "hidden",
  "hide_comments_count": true,
  "hide_date": false,
  "hide_details": false,
  "hide_download_button": "hidden",
  "hide_footer": true,
  "hide_gradient_bottom": false,
  "hide_more_button": true,
  "hide_playlist": false,
  "hide_report_button": true,
  "hide_save_button": "icons_only",
  "hide_scroll_for_details": true,
  "hide_share_button": "icons_only",
  "hide_shorts_remixing": true,
  "hide_thanks_button": "hidden",
  "hide_thumbnail_overlay": false,
  "hide_voice_search_button": true,
  "improvedtube_youtube_icon": "header_right",
  "lastDarkTheme": "sunset",
  "livechat": "normal",
  "mark_watched_videos": false,
  "no_page_margin": true,
  "only_one_player_instance_playing": false,
  "open_new_tab": true,
  "player_60fps": true,
  "player_SDR": true,
  "player_ads": "block_all",
  "player_autoPip": false,
  "player_autofullscreen": false,
  "player_autopause_when_switching_tabs": false,
  "player_autoplay_button": false,
  "player_color": "pink",
  "player_dont_speed_education": false,
  "player_force_speed_on_music": false,
  "player_forced_playback_speed": true,
  "player_forced_volume": false,
  "player_h264": true,
  "player_hamburger_button": false,
  "player_hide_annotations": true,
  "player_hide_cards": true,
  "player_hide_endscreen": true,
  "player_hide_skip_overlay": true,
  "player_loudness_normalization": false,
  "player_miniplayer_button": true,
  "player_playback_speed": 2.05,
  "player_previous_button": true,
  "player_quality": "hd1080",
  "player_remaining_duration": true,
  "player_remote_button": true,
  "player_repeat_button": true,
  "player_screen_button": true,
  "player_show_cards_on_mouse_hover": true,
  "player_size": "full_window",
  "player_subtitles": false,
  "player_transparent_background": false,
  "player_view_button": true,
  "playlist_repeat": true,
  "playlist_reverse": true,
  "playlist_shuffle": true,
  "popup_window_buttons": false,
  "related_videos": "collapsed",
  "remove_history_shorts": true,
  "remove_home_page_shorts": true,
  "remove_related_search_results": true,
  "remove_shorts_reel_search_results": true,
  "remove_subscriptions_shorts": true,
  "remove_trending_shorts": true,
  "scroll_bar": "hidden",
  "shortcut_activate_fullscreen": {
    "alt": false,
    "ctrl": false,
    "shift": false,
    "keys": {
      "80": {
        "code": "KeyP",
        "key": "p"
      }
    },
    "wheel": 0
  },
  "shortcut_decrease_playback_speed": {
    "alt": false,
    "ctrl": false,
    "shift": false,
    "keys": {
      "219": {
        "code": "BracketLeft",
        "key": "["
      }
    },
    "wheel": 0
  },
  "shortcut_decrease_volume": {
    "alt": false,
    "ctrl": false,
    "shift": false,
    "keys": {
      "57": {
        "code": "Digit9",
        "key": "9"
      }
    },
    "wheel": 0
  },
  "shortcut_dislike": {
    "alt": false,
    "ctrl": false,
    "shift": true,
    "keys": {
      "89": {
        "code": "KeyY",
        "key": "Y"
      }
    },
    "wheel": 0
  },
  "shortcut_go_to_search_box": {
    "alt": false,
    "ctrl": false,
    "shift": true,
    "keys": {
      "191": {
        "code": "Slash",
        "key": "?"
      }
    },
    "wheel": 0
  },
  "shortcut_increase_playback_speed": {
    "alt": false,
    "ctrl": false,
    "shift": false,
    "keys": {
      "221": {
        "code": "BracketRight",
        "key": "]"
      }
    },
    "wheel": 0
  },
  "shortcut_increase_volume": {
    "alt": false,
    "ctrl": false,
    "shift": false,
    "keys": {
      "48": {
        "code": "Digit0",
        "key": "0"
      }
    },
    "wheel": 0
  },
  "shortcut_like": {
    "alt": false,
    "ctrl": false,
    "shift": true,
    "keys": {
      "85": {
        "code": "KeyU",
        "key": "U"
      }
    },
    "wheel": 0
  },
  "shortcut_next_video": {
    "alt": false,
    "ctrl": false,
    "shift": true,
    "keys": {
      "59": {
        "code": "Semicolon",
        "key": ":"
      }
    },
    "wheel": 0
  },
  "shortcut_play_pause": {
    "alt": false,
    "ctrl": false,
    "shift": false,
    "keys": {
      "85": {
        "code": "KeyU",
        "key": "u"
      }
    },
    "wheel": 0
  },
  "shortcut_prev_video": {
    "alt": false,
    "ctrl": false,
    "shift": true,
    "keys": {
      "76": {
        "code": "KeyL",
        "key": "L"
      }
    },
    "wheel": 0
  },
  "shortcut_seek_backward": {
    "alt": false,
    "ctrl": false,
    "shift": false,
    "keys": {
      "76": {
        "code": "KeyL",
        "key": "l"
      }
    },
    "wheel": 0
  },
  "shortcut_seek_forward": {
    "alt": false,
    "ctrl": false,
    "shift": false,
    "keys": {
      "59": {
        "code": "Semicolon",
        "key": ";"
      }
    },
    "wheel": 0
  },
  "shortcut_seek_next_chapter": {
    "alt": false,
    "ctrl": true,
    "shift": false,
    "keys": {
      "89": {
        "code": "KeyY",
        "key": "y"
      }
    },
    "wheel": 0
  },
  "shortcut_seek_previous_chapter": {
    "alt": false,
    "ctrl": true,
    "shift": false,
    "keys": {
      "85": {
        "code": "KeyU",
        "key": "u"
      }
    },
    "wheel": 0
  },
  "theme": "sunset",
  "theme_primary_color": [
    200,
    200,
    200
  ],
  "theme_text_color": [
    25,
    25,
    25
  ],
  "thumbnails_hide": true,
  "title_version": true,
  "transcript": false,
  "up_next_autoplay": false,
  "youtube_home_page": "/feed/subscriptions"
}
