{
  "youtube": {
    "enabled": false,
    "redirectType": "main_frame",
    "frontend": "poketube",
    "unsupportedUrls": "bypass",
    "embedFrontend": "invidious"
  },
  "invidious": [
    "https://inv.vern.cc"
  ],
  "piped": [
    "https://pipedapi-libre.kavin.rocks"
  ],
  "pipedMaterial": [
    "https://piped-material.xn--17b.net"
  ],
  "poketube": [
    "https://poketube.fun"
  ],
  "cloudtube": [
    "https://tube.cadence.moe"
  ],
  "youtubeMusic": {
    "enabled": false,
    "frontend": "hyperpipe",
    "unsupportedUrls": "bypass",
    "redirectType": "main_frame"
  },
  "tiktok": {
    "enabled": false,
    "unsupportedUrls": "bypass",
    "frontend": "proxiTok",
    "instance": "public"
  },
  "proxiTok": [
    "https://proxitok.pabloferreiro.es"
  ],
  "reddit": {
    "enabled": true,
    "frontend": "redlib",
    "unsupportedUrls": "bypass",
    "instance": "public",
    "redirectType": "main_frame"
  },
  "libreddit": [
    "https://safereddit.com",
    "https://libreddit.kylrth.com",
    "https://libreddit.oxymagnesium.com",
    "https://reddit.simo.sh",
    "https://libreddit.pussthecat.org",
    "https://lr.vern.cc",
    "https://libreddit.eu.org",
    "https://lr.aeong.one",
    "https://reddit.utsav2.dev",
    "https://libreddit.lunar.icu",
    "https://libreddit.tux.pizza"
  ],
  "teddit": [
    "https://teddit.net"
  ],
  "imgur": {
    "enabled": true,
    "redirectType": "main_frame",
    "unsupportedUrls": "bypass",
    "frontend": "rimgo",
    "instance": "public"
  },
  "rimgo": [
    "https://imgur.artemislena.eu",
    "https://imgur.010032.xyz",
    "https://rimgo.aketawi.space",
    "https://rimgo.catsarch.com",
    "https://rimgo.eu.projectsegfau.lt",
    "https://rimgo.projectsegfau.lt"
  ],
  "medium": {
    "frontend": "scribe",
    "enabled": true,
    "unsupportedUrls": "bypass",
    "redirectType": "main_frame"
  },
  "scribe": [
    "https://scribe.rip",
    "https://scribe.nixnet.services",
    "https://scribe.bus-hit.me",
    "https://scribe.privacydev.net"
  ],
  "libMedium": [
    "https://md.vern.cc"
  ],
  "quora": {
    "enabled": true,
    "unsupportedUrls": "bypass",
    "frontend": "quetre",
    "instance": "public",
    "redirectType": "main_frame"
  },
  "quetre": [
    "https://quetre.pussthecat.org",
    "https://quetre.tokhmi.xyz",
    "https://quetre.privacydev.net",
    "https://quetre.blackdrgn.nl",
    "https://quetre.pufe.org",
    "https://quetre.iket.me",
    "https://qr.vern.cc"
  ],
  "imdb": {
    "enabled": false,
    "unsupportedUrls": "bypass",
    "frontend": "libremdb",
    "instance": "public",
    "redirectType": "main_frame"
  },
  "libremdb": [
    "https://libremdb.iket.me"
  ],
  "fandom": {
    "enabled": true,
    "unsupportedUrls": "bypass",
    "instance": "public",
    "frontend": "breezeWiki",
    "redirectType": "main_frame"
  },
  "breezeWiki": [
    "https://antifandom.com",
    "https://breezewiki.pussthecat.org",
    "https://bw.projectsegfau.lt",
    "https://breeze.hostux.net",
    "https://bw.artemislena.eu",
    "https://breezewiki.aketawi.space"
  ],
  "search": {
    "enabled": true,
    "frontend": "4get",
    "unsupportedUrls": "bypass",
    "instance": "public",
    "redirectType": "main_frame"
  },
  "searxng": [
    "https://etsi.me",
    "https://ooglester.com",
    "https://opnxng.com",
    "https://searx.be",
    "https://search.im-in.space",
    "https://paulgo.io",
    "https://search.cronobox.one",
    "https://northboot.xyz",
    "https://sx.t-1.org"
  ],
  "searx": [],
  "whoogle": [
    "https://s.tokhmi.xyz"
  ],
  "translate": {
    "enabled": true,
    "frontend": "simplyTranslate",
    "unsupportedUrls": "bypass",
    "instance": "public",
    "redirectType": "main_frame"
  },
  "simplyTranslate": [
    "https://simplytranslate.org",
    "https://translate.bus-hit.me",
    "https://simplytranslate.pussthecat.org",
    "https://simplytranslate.aketawi.space"
  ],
  "libreTranslate": [],
  "maps": {
    "enabled": false,
    "frontend": "osm",
    "unsupportedUrls": "bypass",
    "redirectType": "main_frame"
  },
  "osm": [
    "https://www.openstreetmap.org"
  ],
  "sendFiles": {
    "enabled": false,
    "unsupportedUrls": "bypass",
    "frontend": "send",
    "redirectType": "main_frame"
  },
  "send": [
    "https://send.vis.ee"
  ],
  "textStorage": {
    "enabled": false,
    "unsupportedUrls": "bypass",
    "frontend": "privateBin",
    "redirectType": "main_frame"
  },
  "privateBin": [],
  "reuters": {
    "enabled": false,
    "unsupportedUrls": "bypass",
    "frontend": "neuters",
    "redirectType": "main_frame"
  },
  "neuters": [
    "https://neuters.de"
  ],
  "genius": {
    "enabled": false,
    "unsupportedUrls": "bypass",
    "frontend": "dumb",
    "instance": "public",
    "redirectType": "main_frame"
  },
  "dumb": [
    "https://dm.vern.cc"
  ],
  "urbanDictionary": {
    "enabled": true,
    "unsupportedUrls": "bypass",
    "frontend": "ruralDictionary",
    "redirectType": "main_frame"
  },
  "ruralDictionary": [
    "https://ruraldictionary.esmailelbob.xyz"
  ],
  "stackOverflow": {
    "enabled": true,
    "unsupportedUrls": "bypass",
    "frontend": "anonymousOverflow",
    "instance": "public",
    "redirectType": "main_frame"
  },
  "anonymousOverflow": [
    "https://overflow.smnz.de",
    "https://overflow.adminforge.de",
    "https://overflow.hostux.net",
    "https://code.whatever.social",
    "https://overflow.lunar.icu",
    "https://ao.ngn.tf",
    "https://anonflow.aketawi.space"
  ],
  "goodreads": {
    "enabled": false,
    "unsupportedUrls": "bypass",
    "frontend": "biblioReads",
    "instance": "public",
    "redirectType": "main_frame"
  },
  "biblioReads": [
    "https://biblioreads.ml"
  ],
  "wikipedia": {
    "enabled": false,
    "unsupportedUrls": "bypass",
    "frontend": "wikiless",
    "redirectType": "main_frame"
  },
  "wikiless": [
    "https://wikiless.org"
  ],
  "snopes": {
    "enabled": false,
    "unsupportedUrls": "bypass",
    "frontend": "suds",
    "redirectType": "main_frame"
  },
  "suds": [
    "https://sd.vern.cc"
  ],
  "waybackMachine": {
    "enabled": false,
    "unsupportedUrls": "bypass",
    "frontend": "waybackClassic",
    "redirectType": "main_frame"
  },
  "waybackClassic": [
    "https://wayback-classic.net"
  ],
  "github": {
    "enabled": false,
    "unsupportedUrls": "bypass",
    "frontend": "gothub",
    "redirectType": "main_frame"
  },
  "gothub": [
    "https://gh.odyssey346.dev"
  ],
  "bilibili": {
    "enabled": false,
    "unsupportedUrls": "bypass",
    "frontend": "mikuInvidious",
    "redirectType": "main_frame"
  },
  "mikuInvidious": [
    "https://mikuinv.resrv.org"
  ],
  "bandcamp": {
    "enabled": false,
    "unsupportedUrls": "bypass",
    "frontend": "tent"
  },
  "tent": [
    "https://tent.sny.sh"
  ],
  "wolframAlpha": {
    "enabled": false,
    "unsupportedUrls": "bypass",
    "frontend": "wolfreeAlpha"
  },
  "wolfreeAlpha": [
    "https://gqq.gitlab.io",
    "https://uqq.gitlab.io"
  ],
  "exceptions": {
    "url": [],
    "regex": []
  },
  "theme": "detect",
  "popupServices": [
    "youtube",
    "tiktok",
    "imgur",
    "reddit",
    "quora",
    "translate",
    "maps"
  ],
  "fetchInstances": "github",
  "meet": {
    "enabled": false,
    "unsupportedUrls": "bypass",
    "frontend": "jitsi"
  },
  "jitsi": [
    "https://meet.jit.si",
    "https://8x8.vc"
  ],
  "pixiv": {
    "enabled": false,
    "unsupportedUrls": "bypass",
    "frontend": "pixivFe",
    "redirectType": "main_frame"
  },
  "pixivFe": [
    "https://pixivfe.exozy.me"
  ],
  "pinterest": {
    "enabled": false,
    "unsupportedUrls": "bypass",
    "redirectType": "main_frame",
    "frontend": "binternet"
  },
  "binternet": [
    "https://binternet.ahwx.org"
  ],
  "intellectual": [
    "https://intellectual.insprill.net"
  ],
  "gitlab": {
    "enabled": false,
    "unsupportedUrls": "bypass",
    "frontend": "laboratory"
  },
  "laboratory": [
    "https://lab.vern.cc"
  ],
  "instructables": {
    "enabled": false,
    "unsupportedUrls": "bypass",
    "frontend": "indestructables",
    "redirectType": "main_frame"
  },
  "indestructables": [
    "https://indestructables.private.coffee"
  ],
  "hyperpipe": [
    "https://hyperpipe.surge.sh"
  ],
  "twitch": {
    "enabled": false,
    "redirectType": "main_frame",
    "unsupportedUrls": "bypass",
    "frontend": "safetwitch",
    "instance": "public"
  },
  "safetwitch": [
    "https://safetwitch.drgns.space"
  ],
  "destructables": [
    "https://ds.vern.cc"
  ],
  "tuboYoutube": [
    "https://tubo.migalmoreno.com"
  ],
  "instagram": {
    "enabled": false,
    "frontend": "proxigram",
    "unsupportedUrls": "bypass",
    "instance": "public",
    "redirectType": "main_frame"
  },
  "proxigram": [
    "https://proxigram.privacyfrontends.repl.co"
  ],
  "soundcloud": {
    "enabled": false,
    "redirectType": "main_frame",
    "frontend": "tuboSoundcloud",
    "unsupportedUrls": "bypass"
  },
  "tuboSoundcloud": [
    "https://tubo.migalmoreno.com"
  ],
  "4get": [
    "https://4get.ca",
    "https://4get.sijh.net",
    "https://4get.ch",
    "https://4get.zzls.xyz",
    "https://fourget.aketawi.space"
  ],
  "viewtube": [
    "https://viewtube.io"
  ],
  "invidiousMusic": [],
  "bluesky": {
    "enabled": false,
    "unsupportedUrls": "bypass",
    "frontend": "skyview",
    "redirectType": "main_frame"
  },
  "skyview": [
    "https://skyview.social"
  ],
  "redlib": [
    "https://libreddit.bus-hit.me",
    "https://redlib.aketawi.space",
    "https://reddit.nerdvpn.de",
    "https://rl.bloat.cat",
    "https://redlib.privacyredirect.com"
  ],
  "tumblr": {
    "enabled": false,
    "redirectType": "main_frame",
    "unsupportedUrls": "bypass",
    "frontend": "priviblur",
    "instance": "public"
  },
  "priviblur": [
    "https://pb.bloat.cat"
  ],
  "twineo": [
    "https://twineo.exozy.me"
  ],
  "tekstowo": {
    "enabled": false,
    "unsupportedUrls": "bypass",
    "frontend": "tekstoLibre",
    "redirectType": "main_frame"
  },
  "tekstoLibre": [
    "https://davilarek.github.io/TekstoLibre"
  ],
  "librey": [],
  "mozhi": [
    "https://mozhi.aryak.me"
  ],
  "ifunny": {
    "enabled": false,
    "unsupportedUrls": "bypass",
    "frontend": "unfunny",
    "redirectType": "main_frame"
  },
  "unfunny": [
    "https://uf.vern.cc"
  ],
  "tenor": {
    "enabled": false,
    "unsupportedUrls": "bypass",
    "frontend": "soprano",
    "redirectType": "main_frame"
  },
  "soprano": [
    "https://sp.vern.cc"
  ],
  "knowyourmeme": {
    "enabled": false,
    "unsupportedUrls": "bypass",
    "frontend": "meme",
    "redirectType": "main_frame"
  },
  "meme": [],
  "version": "2.8.4"
}